<svg xmlns="http://www.w3.org/2000/svg" viewBox="0 0 316.001 79">
  <defs>
    <style>
      .cls-1 {
        fill: #f4f4f4;
        opacity: .1;
      }
    </style>
  </defs>
  <path id="background-illustration--buttonBottom" class="cls-1" d="M259.2-1210.9a7.9,7.9,0,0,1,7.9-7.9,7.9,7.9,0,0,1,7.9,7.9,7.9,7.9,0,0,1-7.9,7.9A7.9,7.9,0,0,1,259.2-1210.9Zm-27.026,7.9a7.9,7.9,0,0,1-7.9-7.9,7.9,7.9,0,0,1,7.9-7.9H245.48a7.9,7.9,0,0,1,7.9,7.9,7.9,7.9,0,0,1-7.9,7.9ZM.995-1203a7.9,7.9,0,0,1-7.9-7.9,7.9,7.9,0,0,1,7.9-7.9H210.553a7.9,7.9,0,0,1,7.9,7.9,7.9,7.9,0,0,1-7.9,7.9Zm93.974-15.8a7.909,7.909,0,0,0,7.895-7.9,7.909,7.909,0,0,0-7.9-7.9h66.369a7.943,7.943,0,0,0-7.743,7.9,7.952,7.952,0,0,0,7.686,7.9v0Zm-76.511-15.8a7.9,7.9,0,0,1-7.9-7.9,7.9,7.9,0,0,1,7.9-7.9H171.469a7.9,7.9,0,0,1,7.9,7.9,7.9,7.9,0,0,1-7.9,7.9Zm-29.938,0a7.9,7.9,0,0,1-7.9-7.9,7.9,7.9,0,0,1,7.9-7.9h8.316a7.9,7.9,0,0,1,7.9,7.9,7.9,7.9,0,0,1-7.9,7.9ZM-41-1242.5a7.9,7.9,0,0,1,7.9-7.9,7.9,7.9,0,0,1,7.9,7.9,7.9,7.9,0,0,1-7.9,7.9A7.9,7.9,0,0,1-41-1242.5Zm100.211-7.9a7.909,7.909,0,0,0,7.895-7.9,7.909,7.909,0,0,0-7.9-7.9H144.7a7.944,7.944,0,0,0-7.739,7.9,7.953,7.953,0,0,0,7.686,7.9v0Zm172.963-15.8a7.9,7.9,0,0,1-7.9-7.9,7.9,7.9,0,0,1,7.9-7.9h8.316a7.9,7.9,0,0,1,7.9,7.9,7.9,7.9,0,0,1-7.9,7.9Zm-221.2,0a7.9,7.9,0,0,1-7.9-7.9,7.9,7.9,0,0,1,7.9-7.9H212.216a7.9,7.9,0,0,1,7.9,7.9,7.9,7.9,0,0,1-7.9,7.9Z" transform="translate(41 1282)"/>
</svg>